{
  "project_info": {
    "project_number": "595782540423",
    "firebase_url": "https://vcite-283510.firebaseio.com",
    "project_id": "vcite-283510",
    "storage_bucket": "vcite-283510.appspot.com"
  },
  "client": [
    {
      "client_info": {
        "mobilesdk_app_id": "1:595782540423:android:b98e2b2b0b1b173bbe6c22",
        "android_client_info": {
          "package_name": "com.techwin.vcite"
        }
      },
      "oauth_client": [
        {
          "client_id": "595782540423-fuvu40vuuunrfq8kc65nmduu4488fh9r.apps.googleusercontent.com",
          "client_type": 3
        }
      ],
      "api_key": [
        {
          "current_key": "AIzaSyB66vEnqQ4d_qhH0mEUI5TKbhfa9SYlFK0"
        }
      ],
      "services": {
        "appinvite_service": {
          "other_platform_oauth_client": [
            {
              "client_id": "595782540423-fuvu40vuuunrfq8kc65nmduu4488fh9r.apps.googleusercontent.com",
              "client_type": 3
            }
          ]
        }
      }
    }
  ],
  "configuration_version": "1"
}